…
```
## # A tibble: 21 x 13
##    `8AM` `9AM` `10AM` `11AM` Noon  `1PM` `2PM` `3PM` `4PM` `5PM` Commute
##    <chr> <dbl>  <dbl>  <dbl> <chr> <dbl> <dbl> <dbl> <chr> <dbl> <chr>  
##  1 Coff…     5      0      8 Sand…     6     9     2 Tea       2 Long   
##  2 Doug…     0      6      2 Lent…    10     0     1 Ping…     7 Short  
##  3 Coff…     3      7     10 Taco      8     4     6 Ping…     2 Short  
##  4 Coff…     1      7      3 Sand…     7     7     8 Ping…     3 Short  
##  5 Doug…     5      0      2 Sand…     5     6     9 Tea       3 Long   
##  6 Sand…     8      8      8 Lent…     3    10    10 Coff…     0 Short  
##  7 Doug…     7      8      1 Lent…     6     6     4 Coff…     9 Short  
##  8 Coff…     7      7      2 Taco     10     7    10 Tea       8 Short  
##  9 Sand…     2      2      8 Lent…     8     8     0 Ping…    10 Short  
## 10 Coff…     6      9      1 Taco      8     8     4 Work…     4 Short  
## # … with 11 more rows, and 2 more variables: DayOfWeek <chr>, WatchTV <chr>
```
…
